…
### In 2002, which states were observed at 7 locations?

``` r
#This gets the 2002 entries.
filter(BRFSS_Cleaned, year == 2002)%>%
#This includes a single datum for each location
distinct(locationdesc,.keep_all = TRUE)%>%
#These two lines tell us how many locations exist by state
group_by(locationabbr)%>%
summarize(n = n())
```

    ## # A tibble: 49 x 2
    ##    locationabbr     n
    ##    <chr>        <int>
    ##  1 AK               1
    ##  2 AL               1
    ##  3 AR               1
    ##  4 AZ               2
    ##  5 CA               1
    ##  6 CO               4
    ##  7 CT               7
    ##  8 DC               1
    ##  9 DE               3
    ## 10 FL               7
    ## # ... with 39 more rows
…
### Write a short description of the dataset, noting the size and structure of the data, describing some key variables, and giving illstrative examples of observations

This data, with 1,384,617 rows and 15 columns, articulates information about grocery shopping behavior. Key variables include aisle, which describes the location of an item, and product\_id, which gives a numeric code for a purchased product. For instance, order\_id 1 included items such as Bulgarian Yogurt and Organic 4% Milk Fat Whole Milk, both in the department 'dairy eggs'. Additionally, I know the hour of day during this order was 10 am, that it has been 9 days since the last order, and that yogurt was added to the cart first.

### How many aisles are there, and which aisles are the most items ordered from?

``` r
#These three lines generate the number of observations for every aisle, and by extension, includes every aisle as a row. 
instacart%>%
group_by(aisle)%>%
summarize(obs=n())
```

    ## # A tibble: 134 x 2
    ##    aisle                    obs
    ##    <chr>                  <int>
    ##  1 air fresheners candles  1067
    ##  2 asian foods             7007
    ##  3 baby accessories         306
    ##  4 baby bath body care      328
    ##  5 baby food formula      13198
    ##  6 bakery desserts         1501
    ##  7 baking ingredients     13088
    ##  8 baking supplies decor   1094
    ##  9 beauty                   287
    ## 10 beers coolers           1839
    ## # ... with 124 more rows
…
